Full_Clean_Formatted_Data
…
Then, we’ll look specifically at the ‘inches’ column with a frequency table. There is one value that needs to be changed to an NA.

laptop_data <- replace(laptop_data, laptop_data=='?', NA) 

inches_freq_table <- laptop_data %>%   
  group_by(inches) %>%   
  summarise(frequency = n()) %>%   
  arrange(desc(frequency))  

inches_freq_table

# A tibble: 25 × 2
   inches frequency
   <chr>      <int>
 1 15.6         640
 2 14           192
 3 17.3         162
 4 13.3         161
 5 12.5          38
 6 11.6          31
 7 12             6
 8 13.9           6
 9 12.3           5
10 13.5           5
# ℹ 15 more rows

Let’s move on to the next column, ‘screenresolution’ column and create another frequency table for it. We need to get rid of the wording around the actual screen resolution dimensions since they don’t mean much in terms of analysis.

resolution_freq_table <- laptop_data %>%
  group_by(screenresolution) %>%
  summarise(frequency = n()) %>%
  arrange(desc(frequency))

resolution_freq_table

# A tibble: 40 × 2
   screenresolution                              frequency
   <chr>                                             <int>
 1 Full HD 1920x1080                                   495
 2 1366x768                                            274
 3 IPS Panel Full HD 1920x1080                         226
 4 IPS Panel Full HD / Touchscreen 1920x1080            52
 5 Full HD / Touchscreen 1920x1080                      45
 6 1600x900                                             23
 7 Touchscreen 1366x768                                 16
 8 Quad HD+ / Touchscreen 3200x1800                     14
 9 IPS Panel 4K Ultra HD 3840x2160                      12
10 IPS Panel 4K Ultra HD / Touchscreen 3840x2160        11
# ℹ 30 more rows
…
Next, let’s create and look at the ‘cpu’ frequency table.

cpu_freq_table <- laptop_data %>%
  group_by(cpu) %>%
  summarise(frequency = n()) %>%
  arrange(desc(frequency))

cpu_freq_table

# A tibble: 118 × 2
   cpu                         frequency
   <chr>                           <int>
 1 Intel Core i5 7200U 2.5GHz        183
 2 Intel Core i7 7700HQ 2.8GHz       142
 3 Intel Core i7 7500U 2.7GHz        128
 4 Intel Core i7 8550U 1.8GHz         72
 5 Intel Core i5 8250U 1.6GHz         68
 6 Intel Core i5 6200U 2.3GHz         66
 7 Intel Core i3 6006U 2GHz           62
 8 Intel Core i7 6500U 2.5GHz         49
 9 Intel Core i7 6700HQ 2.6GHz        43
10 Intel Core i3 7100U 2.4GHz         37
# ℹ 108 more rows
…
laptop_data$cpu[laptop_data$cpu == "Intel Core M m7-6Y75 1.2GHz"] <- "Intel Core M M7-6Y75 1.2GHz"

laptop_data$cpu[laptop_data$cpu == "Intel Xeon E3-1535M v5 2.9GHz"] <- "Intel Xeon E3-1535M V5 2.9GHz"

laptop_data$cpu[laptop_data$cpu == "Intel Xeon E3-1535M v6 3.1GHz"] <- "Intel Xeon E3-1535M V6 3.1GHz"

#re-call frequency table to make sure it worked as intended
cpu_freq_table <- laptop_data %>%
  group_by(cpu) %>%
  summarise(frequency = n()) %>%
  arrange(desc(frequency))

cpu_freq_table

# A tibble: 107 × 2
   cpu                         frequency
   <chr>                           <int>
 1 Intel Core i5 7200U 2.5GHz        184
 2 Intel Core i7 7700HQ 2.8GHz       142
 3 Intel Core i7 7500U 2.7GHz        128
 4 Intel Core i3 6006U 2GHz           78
 5 Intel Core i7 8550U 1.8GHz         72
 6 Intel Core i5 8250U 1.6GHz         68
 7 Intel Core i5 6200U 2.3GHz         66
 8 Intel Core i7 6500U 2.5GHz         51
 9 Intel Core i7 6700HQ 2.6GHz        43
10 Intel Core i3 7100U 2.4GHz         37
# ℹ 97 more rows
…
Next is the ‘memory’ column and we will create another frequency table to see what we’re working with.

memory_freq_table <- laptop_data %>%
  group_by(memory) %>%
  summarise(frequency = n()) %>%
  arrange(desc(frequency))

memory_freq_table

# A tibble: 40 × 2
   memory               frequency
   <chr>                    <int>
 1 256GB SSD                  401
 2 1TB HDD                    217
 3 500GB HDD                  130
 4 512GB SSD                  116
 5 128GB SSD +  1TB HDD        92
 6 128GB SSD                   74
 7 256GB SSD +  1TB HDD        71
 8 32GB Flash Storage          37
 9 2TB HDD                     16
10 512GB SSD +  1TB HDD        14
# ℹ 30 more rows
…
#checks work and makes sure there is one NA value in memory column
sum(is.na(laptop_data$memory))

[1] 1

Next, we’ll make a ‘gpu’ frequency table.

gpu_freq_table <- laptop_data %>%
  group_by(gpu) %>%
  summarise(frequency = n()) %>%
  arrange(desc(frequency))

gpu_freq_table

# A tibble: 110 × 2
   gpu                     frequency
   <chr>                       <int>
 1 Intel HD Graphics 620         271
 2 Intel HD Graphics 520         181
 3 Intel UHD Graphics 620         66
 4 Nvidia GeForce GTX 1050        64
 5 Nvidia GeForce GTX 1060        48
 6 Nvidia GeForce 940MX           42
 7 AMD Radeon 530                 39
 8 Intel HD Graphics 500          39
 9 Intel HD Graphics 400          34
10 Intel HD Graphics              29
# ℹ 100 more rows
…
laptop_data$gpu[laptop_data$gpu == "Nvidia GeForce GTX1060"] <- "Nvidia GeForce GTX 1060"

laptop_data$gpu[laptop_data$gpu == "Nvidia GeForce GTX1080"] <- "Nvidia GeForce GTX 1080"

#re-call freq table and see if values have changed like they should
##removed some valules from gpu frequency table and everything looks good!
gpu_freq_table <- laptop_data %>%
  group_by(gpu) %>%
  summarise(frequency = n()) %>%
  arrange(desc(frequency))

gpu_freq_table

# A tibble: 101 × 2
   gpu                        frequency
   <chr>                          <int>
 1 Intel HD Graphics 620            272
 2 Intel HD Graphics 520            181
 3 Intel UHD Graphics 620            66
 4 Nvidia GeForce GTX 1050           64
 5 Nvidia GeForce GTX 1060           49
 6 Nvidia GeForce 940MX              42
 7 AMD Radeon 530                    39
 8 Intel HD Graphics 500             39
 9 Intel HD Graphics 400             34
10 Nvidia GeForce GTX 1050 Ti        30
# ℹ 91 more rows
…
Next is a frequency table for the ‘weight_kg’ column.

weight_kg_freq_table <- laptop_data %>%
  group_by(weight_kg) %>%
  summarise(frequency = n()) %>%
  arrange(desc(frequency))

weight_kg_freq_table

# A tibble: 189 × 2
   weight_kg frequency
   <chr>         <int>
 1 2.2kg           111
 2 2.1kg            57
 3 2.4kg            43
 4 2.3kg            41
 5 2.5kg            37
 6 2kg              32
 7 2.8kg            27
 8 1.2kg            25
 9 1.4kg            23
10 1.86kg           23
# ℹ 179 more rows
…
#change '?' to NA value
laptop_data <- laptop_data %>% 
  mutate(weight_kg = ifelse(weight_kg %in% c("?"),
                               NA_character_, weight_kg))

#check work
weight_kg_freq_table <- laptop_data %>%
  group_by(weight_kg) %>%
  summarise(frequency = n()) %>%
  arrange(desc(frequency))

weight_kg_freq_table

# A tibble: 189 × 2
   weight_kg frequency
   <chr>         <int>
 1 2.2             111
 2 2.1              57
 3 2.4              43
 4 2.3              41
 5 2.5              37
 6 2                32
 7 2.8              27
 8 1.2              25
 9 1.4              23
10 1.86             23
# ℹ 179 more rows
…
Row 14 does not contain any values so we should remove it.

imdb_data <- imdb_data[-c(14), ]

Create a ‘duration_min’ frequency table and change values that need to be changed.

duration_freq_table <- imdb_data %>%   
  group_by(duration_min) %>%   
  summarise(frequency = n()) %>%   
  arrange(desc(frequency))  

duration_freq_table

# A tibble: 72 × 2
   duration_min frequency
   <chr>            <int>
 1 116                  3
 2 119                  3
 3 122                  3
 4 130                  3
 5 137                  3
 6 149                  3
 7 102                  2
 8 103                  2
 9 106                  2
10 110                  2
# ℹ 62 more rows
…
#replace empty cell with NA value
imdb_data$duration_min[imdb_data$duration_min == " "] <- NA

#duration_min column cleaning individual cell
imdb_data$duration_min[imdb_data$duration_min == "178c"] <- 178

#check work by re-calling frequency table
duration_freq_table <- imdb_data %>%   
  group_by(duration_min) %>%   
  summarise(frequency = n()) %>%   
  arrange(desc(frequency))  

duration_freq_table

# A tibble: 66 × 2
   duration_min frequency
   <chr>            <int>
 1 <NA>                 6
 2 116                  3
 3 119                  3
 4 122                  3
 5 130                  3
 6 137                  3
 7 149                  3
 8 102                  2
 9 103                  2
10 106                  2
# ℹ 56 more rows
…
Create an ‘imdb_score’ frequency table. Fix values that are incorrect and then check work by updating the frequency table.

score_freq_table <- imdb_data %>%   
  group_by(imdb_score) %>%   
  summarise(frequency = n()) %>%   
  arrange(desc(frequency))  

score_freq_table

# A tibble: 28 × 2
   imdb_score frequency
   <chr>          <int>
 1 8.6               11
 2 8.2                8
 3 8.3                8
 4 8.1                7
 5 8.4                7
 6 7.5                6
 7 7.8                6
 8 8.0                6
 9 8.5                6
10 7.9                5
# ℹ 18 more rows
…
Check ‘title’ column to make sure there aren’t duplicates by creating a frequency table. There are no duplicates and the data set looks clean!

title_freq_table <- imdb_data %>%   
  group_by(title) %>%   
  summarise(frequency = n()) %>%   
  arrange(desc(frequency))  

title_freq_table

# A tibble: 100 × 2
   title                 frequency
   <chr>                     <int>
 1 12 Angry Men                  1
 2 1917                          1
 3 2001: A Space Odyssey         1
 4 3 Idiots                      1
 5 A Clockwork Orange            1
 6 Alien                         1
 7 Aliens                        1
 8 Amadeus                       1
 9 American Beauty               1
10 American History X            1
# ℹ 90 more rows
…
Let’s make a frequency table for the ‘property_type’ column.

proptype_freq_table <- real_estate_data %>%   
  group_by(property_type) %>%   
  summarise(frequency = n()) %>%   
  arrange(desc(frequency))  

proptype_freq_table

# A tibble: 23 × 2
   property_type                                                       frequency
   <chr>                                                                   <int>
 1 Residential, Residential Apartment                                        202
 2 Commercial space rent in Dhaka | 225+ Spaces for Rent with Best Pr…       144
 3 Furnished Apartment For Rent In Dhaka, Residential                        113
 4 Office Space                                                               71
 5 Commercial space rent in Dhaka | 225+ Spaces for Rent with Best Pr…        69
 6 Residential Apartment                                                      64
 7 Luxury Collection, Residential, Residential Apartment                      48
 8 Furnished Apartment For Rent In Dhaka, Luxury Collection, Resident…        18
 9 Furnished Apartment For Rent In Dhaka, Residential, Residential Ap…        14
10 Commercial space rent in Dhaka | 225+ Spaces for Rent with Best Pr…        11
# ℹ 13 more rows
…
Next, we’ll create a frequency table for the ‘property_size’ column.

propsize_freq_table <- real_estate_data %>%   
  group_by(property_size) %>%   
  summarise(frequency = n()) %>%   
  arrange(desc(frequency))  

propsize_freq_table

# A tibble: 316 × 2
   property_size frequency
   <chr>             <int>
 1 ""                   75
 2 "2200 Sq Ft"         37
 3 "2000 Sq Ft"         22
 4 "3000 Sq Ft"         18
 5 "2300 Sq Ft"         17
 6 "3500 Sq Ft"         17
 7 "2700 Sq Ft"         15
 8 "2400 Sq Ft"         13
 9 "4000 Sq Ft"         13
10 "2100 Sq Ft"         11
# ℹ 306 more rows
…
real_estate_data[c('size_sqft', 'remove')] <- 
  str_split_fixed(real_estate_data$property_size, ' ', 2)

real_estate_data <- select(real_estate_data, -property_size)
real_estate_data <- select(real_estate_data, -remove)

propsize_freq_table <- real_estate_data %>%   
  group_by(size_sqft) %>%   
  summarise(frequency = n()) %>%   
  arrange(desc(frequency))  

propsize_freq_table

# A tibble: 189 × 2
   size_sqft frequency
   <chr>         <int>
 1 ""               75
 2 "2200"           51
 3 "3500"           36
 4 "2000"           31
 5 "3000"           31
 6 "2400"           28
 7 "2500"           24
 8 "2700"           24
 9 "2300"           22
10 "2600"           20
# ℹ 179 more rows
…
#remove all instances of 'Sq' from column
real_estate_data$size_sqft <- 
  str_replace_all(real_estate_data$size_sqft, fixed("Sq"), "")

#remove all instances of spaces from column
real_estate_data$size_sqft <- str_trim(real_estate_data$size_sqft, "left")

propsize_freq_table <- real_estate_data %>%   
  group_by(size_sqft) %>%   
  summarise(frequency = n()) %>%   
  arrange(desc(frequency))  

propsize_freq_table

# A tibble: 179 × 2
   size_sqft frequency
   <chr>         <int>
 1 ""               75
 2 "2200"           51
 3 "3500"           36
 4 "3000"           32
 5 "2000"           31
 6 "2400"           28
 7 "2500"           24
 8 "2700"           24
 9 "2300"           22
10 "2600"           20
# ℹ 169 more rows
…
floor_freq_table <- real_estate_data %>%   
  group_by(floor) %>%   
  summarise(frequency = n()) %>%   
  arrange(desc(frequency))  

floor_freq_table

# A tibble: 79 × 2
   floor frequency
   <chr>     <int>
 1 <NA>        177
 2 5            82
 3 4            73
 4 3            72
 5 2            66
 6 1            60
 7 6            41
 8 7            36
 9 8            31
10 9            31
# ℹ 69 more rows
…
#remove 'price_bdt' and 'remove' columns
real_estate_data <- select(real_estate_data, -price_bdt)
real_estate_data <- select(real_estate_data, -remove)

price_freq_table <- real_estate_data %>%   
  group_by(new_price_bdt) %>%   
  summarise(frequency = n()) %>%   
  arrange(desc(frequency))  

price_freq_table

# A tibble: 233 × 2
   new_price_bdt frequency
   <chr>             <int>
 1 100000               79
 2 <NA>                 75
 3 110000               39
 4 130000               31
 5 150000               31
 6 120000               30
 7 250000               29
 8 160000               20
 9 200000               19
10 220000               15
# ℹ 223 more rows
…
#one value is still wrong- change it
real_estate_data$new_service_charge_bdt[real_estate_data$new_service_charge_bdt ==
                                      "85500(9"] <- "85500"

charge_freq_table <- real_estate_data %>%   
  group_by(new_service_charge_bdt) %>%   
  summarise(frequency = n()) %>%   
  arrange(desc(frequency))  

charge_freq_table

# A tibble: 121 × 2
   new_service_charge_bdt frequency
   <chr>                      <int>
 1 <NA>                         259
 2 10000                        100
 3 15000                         54
 4 12000                         40
 5 20000                         39
 6 25000                         27
 7 8000                          27
 8 7000                          26
 9 0                             20
10 14000                         14
# ℹ 111 more rows

Next, we’ll look at the ‘year_built’ column. Everything seems normal so we can move on.

year_freq_table <- real_estate_data %>%   
  group_by(year_built) %>%   
  summarise(frequency = n()) %>%   
  arrange(desc(frequency))  

year_freq_table

# A tibble: 30 × 2
   year_built frequency
        <int>     <int>
 1       2022        76
 2         NA        75
 3       2010        74
 4       2017        72
 5       2015        61
 6       2021        58
 7       2016        53
 8       2020        46
 9       2018        43
10       2012        39
# ℹ 20 more rows
…
#remove all instances of periods in the column
real_estate_data$garage_size_sqft <- 
  str_replace_all(real_estate_data$garage_size_sqft, fixed("."), "")

#freq table 
garage_freq_table <- real_estate_data %>%
  group_by(garage_size_sqft) %>%
  summarise(frequency = n()) %>%
  arrange(desc(frequency))

garage_freq_table

# A tibble: 23 × 2
   garage_size_sqft frequency
   <chr>                <int>
 1 120                    314
 2 240                    148
 3 150                    128
 4 <NA>                    92
 5 350                     47
 6 300                     33
 7 360                     18
 8 1200                     5
 9 480                      4
10 600                      4
# ℹ 13 more rows
…
#one value needs to be changed to NA
real_estate_data <- replace(real_estate_data, real_estate_data=='14 Katha', NA)

#outlier needs to be changed to NA
real_estate_data <- replace(real_estate_data, real_estate_data=='14664', NA)

#freq table
commonsize_freq_table <- real_estate_data %>%
  group_by(common_area_size_sqft) %>%
  summarise(frequency = n()) %>%
  arrange(desc(frequency))

commonsize_freq_table

# A tibble: 54 × 2
   common_area_size_sqft frequency
   <chr>                     <int>
 1 150                         154
 2 250                         117
 3 180                          97
 4 <NA>                         77
 5 350                          70
 6 450                          53
 7 220                          47
 8 550                          40
 9 750                          26
10 120                          25
# ℹ 44 more rows
…
